('Abbie',), 725.0000000000000000, 495.0000000000000000
('Abigail',), 712.0000000000000000, 234.0000000000000000
('Ada',), 317.0000000000000000, 0E-16
('Addie',), 477.0000000000000000, 4.0000000000000000
('Adela',), 806.0000000000000000, 75.0000000000000000
('Adelaide',), 693.0000000000000000, 349.0000000000000000
('Adele',), 381.0000000000000000, 1.0000000000000000
('Adelia',), 1394.0000000000000000, 17.0000000000000000
('Adeline',), 467.0000000000000000, 156.0000000000000000
('Adella',), 1431.0000000000000000, 12.0000000000000000
('Agatha',), 1095.0000000000000000, 71.0000000000000000
('Agnes',), 243.0000000000000000, 0E-16
('Aimee',), 816.0000000000000000, 1412.0000000000000000
('Alberta',), 247.0000000000000000, 0E-16
('Alice',), 44.0000000000000000, 0E-16
('Alida',), 1499.0000000000000000, 122.0000000000000000
('Aline',), 780.0000000000000000, 6.0000000000000000
('Allie',), 424.0000000000000000, 456.0000000000000000
('Alma',), 207.0000000000000000, 0E-16
('Alta',), 556.0000000000000000, 0E-16
('Althea',), 599.0000000000000000, 124.0000000000000000
('Alva',), 918.0000000000000000, 18.0000000000000000
('Alvina',), 1059.0000000000000000, 0E-16
('Amalia',), 1108.0000000000000000, 167.0000000000000000
('Amanda',), 165.0000000000000000, 311.0000000000000000
('Amelia',), 225.0000000000000000, 92.0000000000000000
('America',), 1572.0000000000000000, 1028.0000000000000000
('Amie',), 942.0000000000000000, 1028.0000000000000000
('Amy',), 135.0000000000000000, 192.0000000000000000
('Anastasia',), 622.0000000000000000, 666.0000000000000000
('Angela',), 192.0000000000000000, 0E-16
('Angelina',), 308.0000000000000000, 208.0000000000000000
('Angeline',), 624.0000000000000000, 27.0000000000000000
('Angie',), 436.0000000000000000, 107.0000000000000000
('Anita',), 193.0000000000000000, 109.0000000000000000
('Ann',), 78.0000000000000000, 38.0000000000000000
('Anna',), 31.0000000000000000, 56.0000000000000000
('Annabel',), 1046.0000000000000000, 763.0000000000000000
('Annabelle',), 494.0000000000000000, 274.0000000000000000
('Anne',), 101.0000000000000000, 20.0000000000000000
('Annetta',), 820.0000000000000000, 139.0000000000000000
('Annette',), 243.0000000000000000, 101.0000000000000000
('Annie',), 97.0000000000000000, 0E-16
('Antoinette',), 286.0000000000000000, 30.0000000000000000
('Antonia',), 467.0000000000000000, 4.0000000000000000
('Ara',), 2490.0000000000000000, 395.0000000000000000
('Augusta',), 1122.0000000000000000, 90.0000000000000000
('Aurelia',), 912.0000000000000000, 0E-16
('Ava',), 538.0000000000000000, 165.0000000000000000
('Barbara',), 113.0000000000000000, 109.0000000000000000
('Beatrice',), 180.0000000000000000, 0E-16
('Bella',), 1036.0000000000000000, 885.0000000000000000
('Belle',), 1314.0000000000000000, 22.0000000000000000
('Bernice',), 206.0000000000000000, 27.0000000000000000
('Berta',), 952.0000000000000000, 109.0000000000000000
('Bertha',), 173.0000000000000000, 0E-16
('Bess',), 1826.0000000000000000, 32.0000000000000000
('Bessie',), 225.0000000000000000, 0E-16
('Betsy',), 491.0000000000000000, 214.0000000000000000
('Betty',), 119.0000000000000000, 105.0000000000000000
('Blanche',), 408.0000000000000000, 0E-16
('Bonnie',), 181.0000000000000000, 148.0000000000000000
('Bridget',), 404.0000000000000000, 411.0000000000000000
('Callie',), 356.0000000000000000, 392.0000000000000000
('Camilla',), 687.0000000000000000, 21.0000000000000000
('Camille',), 417.0000000000000000, 96.0000000000000000
('Carolina',), 622.0000000000000000, 126.0000000000000000
('Caroline',), 159.0000000000000000, 56.0000000000000000
('Carolyn',), 155.0000000000000000, 143.0000000000000000
('Carrie',), 134.0000000000000000, 85.0000000000000000
('Cassie',), 513.0000000000000000, 511.0000000000000000
('Catharine',), 789.0000000000000000, 8.0000000000000000
('Catherine',), 44.0000000000000000, 4.0000000000000000
('Cathrine',), 926.0000000000000000, 54.0000000000000000
('Cecelia',), 285.0000000000000000, 13.0000000000000000
('Cecile',), 523.0000000000000000, 0E-16
('Cecilia',), 264.0000000000000000, 14.0000000000000000
('Celia',), 347.0000000000000000, 33.0000000000000000
('Celina',), 1146.0000000000000000, 1334.0000000000000000
('Charity',), 640.0000000000000000, 590.0000000000000000
('Charlotte',), 101.0000000000000000, 37.0000000000000000
('Chloe',), 699.0000000000000000, 421.0000000000000000
('Christina',), 207.0000000000000000, 24.0000000000000000
('Christine',), 120.0000000000000000, 70.0000000000000000
('Claire',), 220.0000000000000000, 8.0000000000000000
('Clara',), 136.0000000000000000, 7.0000000000000000
('Clare',), 512.0000000000000000, 10.0000000000000000
('Clarice',), 558.0000000000000000, 62.0000000000000000
('Claudia',), 255.0000000000000000, 132.0000000000000000
('Cleo',), 553.0000000000000000, 0E-16
('Connie',), 313.0000000000000000, 268.0000000000000000
('Constance',), 281.0000000000000000, 181.0000000000000000
('Cora',), 231.0000000000000000, 20.0000000000000000
('Cordelia',), 936.0000000000000000, 0E-16
('Corine',), 714.0000000000000000, 0E-16
('Corinne',), 386.0000000000000000, 53.0000000000000000
('Cornelia',), 504.0000000000000000, 28.0000000000000000
('Corrie',), 1224.0000000000000000, 697.0000000000000000
('Corrine',), 616.0000000000000000, 27.0000000000000000
('Cynthia',), 179.0000000000000000, 133.0000000000000000
('Daisy',), 172.0000000000000000, 135.0000000000000000
('Deborah',), 454.0000000000000000, 335.0000000000000000
('Delia',), 413.0000000000000000, 6.0000000000000000
('Delilah',), 868.0000000000000000, 325.0000000000000000
('Della',), 297.0000000000000000, 8.0000000000000000
('Delphine',), 794.0000000000000000, 73.0000000000000000
('Dena',), 619.0000000000000000, 110.0000000000000000
('Dessie',), 963.0000000000000000, 34.0000000000000000
('Diana',), 118.0000000000000000, 76.0000000000000000
('Dixie',), 453.0000000000000000, 225.0000000000000000
('Dolly',), 485.0000000000000000, 2.0000000000000000
('Dolores',), 352.0000000000000000, 249.0000000000000000
('Donna',), 225.0000000000000000, 212.0000000000000000
('Dora',), 232.0000000000000000, 2.0000000000000000
('Dorcas',), 970.0000000000000000, 78.0000000000000000
('Doris',), 171.0000000000000000, 120.0000000000000000
('Dorothea',), 460.0000000000000000, 0E-16
('Dorothy',), 79.0000000000000000, 56.0000000000000000
('Edith',), 136.0000000000000000, 0E-16
('Edna',), 126.0000000000000000, 0E-16
('Effie',), 522.0000000000000000, 0E-16
('Elda',), 1031.0000000000000000, 95.0000000000000000
('Eleanor',), 140.0000000000000000, 0E-16
('Eleanore',), 997.0000000000000000, 0E-16
('Elinor',), 747.0000000000000000, 115.0000000000000000
('Elisabeth',), 435.0000000000000000, 219.0000000000000000
('Elise',), 456.0000000000000000, 245.0000000000000000
('Eliza',), 446.0000000000000000, 252.0000000000000000
('Elizabeth',), 10.0000000000000000, 15.0000000000000000
('Elizebeth',), 1418.0000000000000000, 302.0000000000000000
('Ella',), 122.0000000000000000, 55.0000000000000000
('Ellen',), 95.0000000000000000, 37.0000000000000000
('Ellie',), 854.0000000000000000, 421.0000000000000000
('Elma',), 623.0000000000000000, 0E-16
('Eloise',), 401.0000000000000000, 106.0000000000000000
('Elsa',), 592.0000000000000000, 179.0000000000000000
('Elsie',), 222.0000000000000000, 0E-16
('Elva',), 482.0000000000000000, 6.0000000000000000
('Elvira',), 501.0000000000000000, 0E-16
('Emelia',), 1600.0000000000000000, 495.0000000000000000
('Emilia',), 733.0000000000000000, 315.0000000000000000
('Emilie',), 595.0000000000000000, 213.0000000000000000
('Emily',), 100.0000000000000000, 86.0000000000000000
('Emma',), 67.0000000000000000, 64.0000000000000000
('Emmie',), 1456.0000000000000000, 53.0000000000000000
('Erma',), 309.0000000000000000, 12.0000000000000000
('Estella',), 383.0000000000000000, 11.0000000000000000
('Estelle',), 451.0000000000000000, 0E-16
('Esther',), 155.0000000000000000, 4.0000000000000000
('Ethel',), 139.0000000000000000, 0E-16
('Etta',), 401.0000000000000000, 0E-16
('Eugenia',), 432.0000000000000000, 37.0000000000000000
('Eunice',), 291.0000000000000000, 0E-16
('Eva',), 129.0000000000000000, 32.0000000000000000
('Eve',), 685.0000000000000000, 1.0000000000000000
('Evelyn',), 88.0000000000000000, 23.0000000000000000
('Evie',), 1037.0000000000000000, 141.0000000000000000
('Fannie',), 298.0000000000000000, 0E-16
('Fanny',), 1469.0000000000000000, 340.0000000000000000
('Fay',), 393.0000000000000000, 18.0000000000000000
('Faye',), 298.0000000000000000, 116.0000000000000000
('Fern',), 527.0000000000000000, 63.0000000000000000
('Flora',), 314.0000000000000000, 0E-16
('Florence',), 146.0000000000000000, 0E-16
('Frances',), 45.0000000000000000, 6.0000000000000000
('Francis',), 478.0000000000000000, 5.0000000000000000
('Frankie',), 383.0000000000000000, 27.0000000000000000
('Freda',), 349.0000000000000000, 0E-16
('Frieda',), 600.0000000000000000, 5.0000000000000000
('Geneva',), 273.0000000000000000, 40.0000000000000000
('Genevieve',), 283.0000000000000000, 64.0000000000000000
('Georgia',), 132.0000000000000000, 9.0000000000000000
('Georgiana',), 741.0000000000000000, 28.0000000000000000
('Georgianna',), 700.0000000000000000, 100.0000000000000000
('Georgie',), 808.0000000000000000, 0E-16
('Geraldine',), 291.0000000000000000, 225.0000000000000000
('Gertrude',), 290.0000000000000000, 0E-16
('Gladys',), 197.0000000000000000, 40.0000000000000000
('Glenna',), 540.0000000000000000, 215.0000000000000000
('Goldie',), 599.0000000000000000, 0E-16
('Grace',), 69.0000000000000000, 85.0000000000000000
('Gracie',), 321.0000000000000000, 81.0000000000000000
('Hallie',), 545.0000000000000000, 525.0000000000000000
('Hanna',), 1057.0000000000000000, 2156.0000000000000000
('Hannah',), 243.0000000000000000, 376.0000000000000000
('Harriet',), 189.0000000000000000, 0E-16
('Hattie',), 266.0000000000000000, 0E-16
('Hazel',), 190.0000000000000000, 15.0000000000000000
('Helen',), 38.0000000000000000, 2.0000000000000000
('Helena',), 521.0000000000000000, 1.0000000000000000
('Helene',), 375.0000000000000000, 52.0000000000000000
('Henrietta',), 316.0000000000000000, 0E-16
('Hilda',), 263.0000000000000000, 7.0000000000000000
('Hope',), 394.0000000000000000, 15.0000000000000000
('Ida',), 184.0000000000000000, 0E-16
('Ila',), 622.0000000000000000, 32.0000000000000000
('Ina',), 415.0000000000000000, 0E-16
('India',), 1002.0000000000000000, 807.0000000000000000
('Inez',), 360.0000000000000000, 0E-16
('Inga',), 1909.0000000000000000, 691.0000000000000000
('Iona',), 849.0000000000000000, 0E-16
('Irene',), 102.0000000000000000, 0E-16
('Iris',), 369.0000000000000000, 116.0000000000000000
('Irma',), 259.0000000000000000, 0E-16
('Isa',), 3152.0000000000000000, 1805.0000000000000000
('Isabel',), 240.0000000000000000, 168.0000000000000000
('Isabell',), 839.0000000000000000, 281.0000000000000000
('Isabella',), 489.0000000000000000, 480.0000000000000000
('Isabelle',), 316.0000000000000000, 411.0000000000000000
('Iva',), 504.0000000000000000, 2.0000000000000000
('Ivy',), 564.0000000000000000, 523.0000000000000000
('James',), 548.0000000000000000, 56.0000000000000000
('Jane',), 108.0000000000000000, 73.0000000000000000
('Janet',), 163.0000000000000000, 142.0000000000000000
('Janie',), 239.0000000000000000, 81.0000000000000000
('Jannie',), 499.0000000000000000, 3.0000000000000000
('Jean',), 138.0000000000000000, 101.0000000000000000
('Jeanette',), 190.0000000000000000, 69.0000000000000000
('Jeanne',), 288.0000000000000000, 205.0000000000000000
('Jeannette',), 250.0000000000000000, 20.0000000000000000
('Jennie',), 272.0000000000000000, 2.0000000000000000
('Jenny',), 440.0000000000000000, 56.0000000000000000
('Jesse',), 1138.0000000000000000, 1462.0000000000000000
('Jessica',), 506.0000000000000000, 0E-16
('Jessie',), 204.0000000000000000, 3.0000000000000000
('Jewel',), 515.0000000000000000, 85.0000000000000000
('Joan',), 342.0000000000000000, 314.0000000000000000
('Joanna',), 327.0000000000000000, 5.0000000000000000
('Johanna',), 399.0000000000000000, 79.0000000000000000
('John',), 548.0000000000000000, 0E-16
('Johnnie',), 341.0000000000000000, 105.0000000000000000
('Joseph',), 881.0000000000000000, 206.0000000000000000
('Josephine',), 127.0000000000000000, 0E-16
('Josie',), 340.0000000000000000, 82.0000000000000000
('Juana',), 787.0000000000000000, 46.0000000000000000
('Juanita',), 203.0000000000000000, 93.0000000000000000
('Judith',), 380.0000000000000000, 370.0000000000000000
('Julia',), 72.0000000000000000, 42.0000000000000000
('Julie',), 261.0000000000000000, 133.0000000000000000
('Juliet',), 791.0000000000000000, 76.0000000000000000
('June',), 281.0000000000000000, 165.0000000000000000
('Kate',), 325.0000000000000000, 555.0000000000000000
('Katharine',), 444.0000000000000000, 0E-16
('Katherine',), 59.0000000000000000, 19.0000000000000000
('Katheryn',), 728.0000000000000000, 67.0000000000000000
('Kathleen',), 87.0000000000000000, 71.0000000000000000
('Kathrine',), 736.0000000000000000, 138.0000000000000000
('Kathryn',), 87.0000000000000000, 24.0000000000000000
('Kathryne',), 1261.0000000000000000, 68.0000000000000000
('Katie',), 161.0000000000000000, 139.0000000000000000
('Kattie',), 1211.0000000000000000, 19.0000000000000000
('Kitty',), 660.0000000000000000, 206.0000000000000000
('Laura',), 49.0000000000000000, 26.0000000000000000
('Lavina',), 1237.0000000000000000, 71.0000000000000000
('Lavinia',), 1451.0000000000000000, 163.0000000000000000
('Lea',), 662.0000000000000000, 69.0000000000000000
('Leah',), 226.0000000000000000, 205.0000000000000000
('Leanna',), 770.0000000000000000, 26.0000000000000000
('Leda',), 1488.0000000000000000, 94.0000000000000000
('Lee',), 293.0000000000000000, 45.0000000000000000
('Leila',), 423.0000000000000000, 192.0000000000000000
('Lela',), 417.0000000000000000, 30.0000000000000000
('Lelia',), 664.0000000000000000, 3.0000000000000000
('Lena',), 275.0000000000000000, 0E-16
('Lenna',), 1599.0000000000000000, 67.0000000000000000
('Lenora',), 389.0000000000000000, 11.0000000000000000
('Lenore',), 476.0000000000000000, 82.0000000000000000
('Leona',), 245.0000000000000000, 0E-16
('Leonora',), 1105.0000000000000000, 18.0000000000000000
('Leora',), 941.0000000000000000, 28.0000000000000000
('Leslie',), 191.0000000000000000, 61.0000000000000000
('Lida',), 1331.0000000000000000, 108.0000000000000000
('Lila',), 282.0000000000000000, 104.0000000000000000
('Lilian',), 1222.0000000000000000, 1661.0000000000000000
('Lillian',), 79.0000000000000000, 50.0000000000000000
('Lillie',), 178.0000000000000000, 0E-16
('Lilly',), 446.0000000000000000, 200.0000000000000000
('Lily',), 376.0000000000000000, 355.0000000000000000
('Lina',), 933.0000000000000000, 187.0000000000000000
('Linda',), 262.0000000000000000, 260.0000000000000000
('Liza',), 938.0000000000000000, 501.0000000000000000
('Lizzie',), 456.0000000000000000, 0E-16
('Lois',), 159.0000000000000000, 104.0000000000000000
('Lola',), 231.0000000000000000, 44.0000000000000000
('Lona',), 714.0000000000000000, 27.0000000000000000
('Lora',), 351.0000000000000000, 66.0000000000000000
('Lorena',), 390.0000000000000000, 288.0000000000000000
('Loretta',), 137.0000000000000000, 26.0000000000000000
('Lottie',), 504.0000000000000000, 30.0000000000000000
('Louisa',), 707.0000000000000000, 0E-16
('Louise',), 91.0000000000000000, 0E-16
('Lovie',), 1096.0000000000000000, 82.0000000000000000
('Lucia',), 541.0000000000000000, 24.0000000000000000
('Lucie',), 1397.0000000000000000, 42.0000000000000000
('Lucille',), 187.0000000000000000, 50.0000000000000000
('Lucinda',), 447.0000000000000000, 73.0000000000000000
('Lucy',), 154.0000000000000000, 40.0000000000000000
('Luella',), 610.0000000000000000, 10.0000000000000000
('Lula',), 283.0000000000000000, 0E-16
('Lydia',), 204.0000000000000000, 35.0000000000000000
('Mabel',), 421.0000000000000000, 0E-16
('Mable',), 347.0000000000000000, 0E-16
('Madeline',), 200.0000000000000000, 35.0000000000000000
('Mae',), 249.0000000000000000, 0E-16
('Magdalena',), 811.0000000000000000, 150.0000000000000000
('Magdalene',), 1178.0000000000000000, 0E-16
('Maggie',), 232.0000000000000000, 118.0000000000000000
('Malinda',), 604.0000000000000000, 24.0000000000000000
('Malissa',), 1405.0000000000000000, 910.0000000000000000
('Mamie',), 317.0000000000000000, 0E-16
('Mandy',), 721.0000000000000000, 615.0000000000000000
('Manuela',), 860.0000000000000000, 106.0000000000000000
('Marcella',), 363.0000000000000000, 75.0000000000000000
('Marcia',), 438.0000000000000000, 349.0000000000000000
('Margaret',), 14.0000000000000000, 3.0000000000000000
('Margie',), 266.0000000000000000, 128.0000000000000000
('Margret',), 773.0000000000000000, 28.0000000000000000
('Marguerite',), 251.0000000000000000, 0E-16
('Maria',), 88.0000000000000000, 0E-16
('Mariah',), 881.0000000000000000, 1347.0000000000000000
('Marian',), 230.0000000000000000, 68.0000000000000000
('Marie',), 55.0000000000000000, 1.0000000000000000
('Marietta',), 559.0000000000000000, 18.0000000000000000
('Marion',), 155.0000000000000000, 0E-16
('Marjorie',), 182.0000000000000000, 76.0000000000000000
('Martha',), 32.0000000000000000, 0E-16
('Mary',), 1.00000000000000000000, 0E-20
('Matilda',), 710.0000000000000000, 0E-16
('Mattie',), 214.0000000000000000, 0E-16
('Maude',), 850.0000000000000000, 42.0000000000000000
('May',), 555.0000000000000000, 18.0000000000000000
('Melinda',), 606.0000000000000000, 270.0000000000000000
('Melissa',), 274.0000000000000000, 291.0000000000000000
('Mildred',), 119.0000000000000000, 15.0000000000000000
('Millie',), 525.0000000000000000, 0E-16
('Mina',), 893.0000000000000000, 112.0000000000000000
('Minerva',), 670.0000000000000000, 4.0000000000000000
('Minnie',), 218.0000000000000000, 0E-16
('Miriam',), 274.0000000000000000, 0E-16
('Mollie',), 479.0000000000000000, 72.0000000000000000
('Molly',), 340.0000000000000000, 29.0000000000000000
('Mona',), 391.0000000000000000, 27.0000000000000000
('Muriel',), 444.0000000000000000, 64.0000000000000000
('Myra',), 293.0000000000000000, 47.0000000000000000
('Nancy',), 86.0000000000000000, 79.0000000000000000
('Naomi',), 202.0000000000000000, 42.0000000000000000
('Natalie',), 260.0000000000000000, 125.0000000000000000
('Nell',), 569.0000000000000000, 0E-16
('Nellie',), 240.0000000000000000, 0E-16
('Nettie',), 400.0000000000000000, 7.0000000000000000
('Neva',), 586.0000000000000000, 33.0000000000000000
('Nevada',), 2441.0000000000000000, 593.0000000000000000
('Nina',), 201.0000000000000000, 25.0000000000000000
('Nola',), 520.0000000000000000, 5.0000000000000000
('Nona',), 525.0000000000000000, 21.0000000000000000
('Nora',), 216.0000000000000000, 13.0000000000000000
('Norah',), 2004.0000000000000000, 22.0000000000000000
('Norma',), 173.0000000000000000, 96.0000000000000000
('Octavia',), 824.0000000000000000, 615.0000000000000000
('Odessa',), 614.0000000000000000, 27.0000000000000000
('Ola',), 490.0000000000000000, 0E-16
('Olga',), 353.0000000000000000, 9.0000000000000000
('Olive',), 554.0000000000000000, 173.0000000000000000
('Olivia',), 266.0000000000000000, 2.0000000000000000
('Ollie',), 422.0000000000000000, 5.0000000000000000
('Ona',), 1042.0000000000000000, 0E-16
('Opal',), 488.0000000000000000, 64.0000000000000000
('Ophelia',), 681.0000000000000000, 81.0000000000000000
('Ora',), 408.0000000000000000, 0E-16
('Patsy',), 528.0000000000000000, 442.0000000000000000
('Paula',), 320.0000000000000000, 251.0000000000000000
('Paulina',), 1288.0000000000000000, 807.0000000000000000
('Pauline',), 133.0000000000000000, 0E-16
('Pearl',), 281.0000000000000000, 0E-16
('Phebe',), 2351.0000000000000000, 129.0000000000000000
('Phoebe',), 549.0000000000000000, 207.0000000000000000
('Phyllis',), 251.0000000000000000, 210.0000000000000000
('Polly',), 388.0000000000000000, 30.0000000000000000
('Priscilla',), 269.0000000000000000, 109.0000000000000000
('Queen',), 560.0000000000000000, 45.0000000000000000
('Rachael',), 666.0000000000000000, 295.0000000000000000
('Rachel',), 142.0000000000000000, 54.0000000000000000
('Rae',), 492.0000000000000000, 6.0000000000000000
('Reba',), 407.0000000000000000, 62.0000000000000000
('Rebecca',), 95.0000000000000000, 27.0000000000000000
('Regina',), 208.0000000000000000, 12.0000000000000000
('Rena',), 392.0000000000000000, 0E-16
('Rhoda',), 479.0000000000000000, 0E-16
('Rita',), 227.0000000000000000, 171.0000000000000000
('Robert',), 642.0000000000000000, 105.0000000000000000
('Roberta',), 209.0000000000000000, 124.0000000000000000
('Rosa',), 155.0000000000000000, 13.0000000000000000
('Rosalia',), 1330.0000000000000000, 151.0000000000000000
('Rosalie',), 300.0000000000000000, 89.0000000000000000
('Rosanna',), 789.0000000000000000, 270.0000000000000000
('Rose',), 54.0000000000000000, 6.0000000000000000
('Rosella',), 645.0000000000000000, 6.0000000000000000
('Rosetta',), 351.0000000000000000, 2.0000000000000000
('Rosie',), 205.0000000000000000, 0E-16
('Rosina',), 1411.0000000000000000, 121.0000000000000000
('Rowena',), 769.0000000000000000, 27.0000000000000000
('Roxie',), 550.0000000000000000, 13.0000000000000000
('Ruby',), 111.0000000000000000, 6.0000000000000000
('Ruth',), 62.0000000000000000, 24.0000000000000000
('Sabina',), 1460.0000000000000000, 260.0000000000000000
('Sadie',), 244.0000000000000000, 144.0000000000000000
('Sallie',), 315.0000000000000000, 11.0000000000000000
('Sally',), 189.0000000000000000, 122.0000000000000000
('Samantha',), 754.0000000000000000, 778.0000000000000000
('Sara',), 125.0000000000000000, 10.0000000000000000
('Sarah',), 42.0000000000000000, 50.0000000000000000
('Savannah',), 771.0000000000000000, 710.0000000000000000
('Selena',), 795.0000000000000000, 565.0000000000000000
('Selma',), 719.0000000000000000, 40.0000000000000000
('Sena',), 2780.0000000000000000, 180.0000000000000000
('Serena',), 739.0000000000000000, 266.0000000000000000
('Sidney',), 894.0000000000000000, 20.0000000000000000
('Sophia',), 238.0000000000000000, 563.0000000000000000
('Sophie',), 287.0000000000000000, 494.0000000000000000
('Stella',), 192.0000000000000000, 17.0000000000000000
('Sue',), 233.0000000000000000, 172.0000000000000000
('Susan',), 124.0000000000000000, 116.0000000000000000
('Susanna',), 707.0000000000000000, 16.0000000000000000
('Susie',), 230.0000000000000000, 13.0000000000000000
('Sylvia',), 136.0000000000000000, 54.0000000000000000
('Teresa',), 214.0000000000000000, 66.0000000000000000
('Tessie',), 1293.0000000000000000, 188.0000000000000000
('Theresa',), 100.0000000000000000, 4.0000000000000000
('Therese',), 636.0000000000000000, 229.0000000000000000
('Tina',), 421.0000000000000000, 78.0000000000000000
('Tommie',), 535.0000000000000000, 75.0000000000000000
('Tressa',), 1293.0000000000000000, 477.0000000000000000
('Una',), 1230.0000000000000000, 0E-16
('Velma',), 302.0000000000000000, 60.0000000000000000
('Vera',), 216.0000000000000000, 15.0000000000000000
('Verna',), 276.0000000000000000, 11.0000000000000000
('Veronica',), 194.0000000000000000, 6.0000000000000000
('Victoria',), 129.0000000000000000, 7.0000000000000000
('Vida',), 1054.0000000000000000, 127.0000000000000000
('Vina',), 1394.0000000000000000, 0E-16
('Viola',), 256.0000000000000000, 0E-16
('Violet',), 239.0000000000000000, 55.0000000000000000
('Virginia',), 94.0000000000000000, 63.0000000000000000
('Vivian',), 177.0000000000000000, 57.0000000000000000
('Wanda',), 227.0000000000000000, 168.0000000000000000
('Wilhelmina',), 811.0000000000000000, 46.0000000000000000
('Willa',), 492.0000000000000000, 45.0000000000000000
('William',), 698.0000000000000000, 93.0000000000000000
('Wilma',), 305.0000000000000000, 160.0000000000000000
('Winifred',), 405.0000000000000000, 11.0000000000000000
('Winnie',), 586.0000000000000000, 0E-16
('Winona',), 868.0000000000000000, 6.0000000000000000
('Zoe',), 820.0000000000000000, 222.0000000000000000
